<svg width="390" height="399" viewBox="0 0 390 399" fill="none" xmlns="http://www.w3.org/2000/svg">
<path opacity="0.1" d="M327.095 186.944C327.095 193.768 328.215 201.118 329.689 208.626C330.387 212.181 331.166 215.777 331.945 219.373L332.077 219.983C332.9 223.784 333.717 227.583 334.437 231.34C337.324 246.404 338.6 260.641 332.449 271.439C326.008 282.746 314.471 290.6 301.639 297.303C296.226 300.131 290.6 302.745 285.043 305.328C284.017 305.804 282.994 306.28 281.974 306.756C275.44 309.805 269.077 312.855 263.393 316.194C257.829 319.463 252.963 323.03 248.375 326.532C247.376 327.294 246.392 328.053 245.416 328.805C241.902 331.512 238.505 334.128 235.003 336.498C226.08 342.539 216.527 346.94 202.896 346.94C173.868 346.94 146.779 338.616 123.866 324.214C121.533 322.748 119.109 319.635 116.648 315.567C114.197 311.517 111.752 306.597 109.35 301.595C108.767 300.38 108.186 299.16 107.609 297.947C105.813 294.173 104.048 290.466 102.339 287.186C100.086 282.862 97.8979 279.214 95.8181 277.112C93.6945 274.966 91.6449 272.918 89.6706 270.946C79.1251 260.408 70.7303 252.02 64.7047 242.381C57.5735 230.974 53.7568 217.799 53.7568 197.216C53.7568 186.077 57.2846 173.596 61.9329 161.48C65.594 151.937 69.9355 142.655 73.7689 134.46C74.8014 132.252 75.7969 130.124 76.7325 128.09C80.4212 120.072 85.5025 109.702 91.1902 99.7926C96.8826 89.8754 103.164 80.4531 109.247 74.3063C122.726 60.6868 136.693 54.1618 151.97 52.3035C167.269 50.4426 183.918 53.2564 202.764 58.3874C221.558 63.5038 233.549 70.6506 243.61 78.1426C247.036 80.6939 250.231 83.28 253.402 85.8462C254.899 87.0572 256.389 88.2637 257.897 89.4601C262.589 93.1853 267.418 96.7945 272.986 100.065C295.211 113.12 308.681 121.055 316.646 132.595C324.593 144.109 327.095 159.278 327.095 186.944Z" stroke="#FAFAFA"/>
<path opacity="0.1" d="M315.495 255.616C312.051 261.492 309.31 268.388 306.795 275.601C305.604 279.015 304.463 282.507 303.321 285.998L303.128 286.589C301.921 290.279 300.711 293.964 299.437 297.563C294.331 311.997 288.249 324.901 277.484 331.082C266.21 337.554 252.274 338.472 237.798 337.743C231.693 337.435 225.51 336.836 219.403 336.245C218.276 336.135 217.151 336.026 216.03 335.92C208.843 335.235 201.803 334.638 195.205 334.633C188.745 334.628 182.74 335.235 177.006 335.926C175.758 336.076 174.524 336.231 173.301 336.383C168.897 336.934 164.641 337.466 160.418 337.733C149.656 338.413 139.177 337.363 127.393 330.457C102.301 315.751 83.0851 294.858 70.5461 270.85C67.8738 265.733 62.7213 255.859 57.8791 245.874C53.028 235.871 48.5171 225.814 47.0994 220.309C38.3429 186.306 50.9662 164.978 69.4282 133.785C70.927 131.252 72.4643 128.655 74.0317 125.981C76.7895 121.275 81.3368 118.137 86.9407 115.899C92.5484 113.659 99.1689 112.338 106.017 111.241C108.129 110.902 110.264 110.585 112.396 110.268C117.157 109.56 121.902 108.854 126.336 107.922C132.757 106.572 138.608 104.733 143.01 101.67C146.719 99.0887 150.094 94.6907 153.322 89.5426C155.796 85.5987 158.207 81.1738 160.628 76.7317C161.371 75.3689 162.114 74.0045 162.861 72.6519C166.049 66.8758 169.293 61.3081 172.783 56.9091C176.278 52.5025 179.968 49.336 184.023 48.2636C202.548 43.3654 217.914 44.8228 232.059 50.9629C246.223 57.1114 259.195 67.9692 272.897 81.9354C283.942 93.1934 293.84 98.31 302.37 102.719C304.483 103.811 306.512 104.86 308.453 105.947C313.342 108.687 317.682 111.673 321.478 116.223C325.274 120.774 328.549 126.918 331.258 136.001C338.704 160.968 341.71 178.977 339.398 196.672C337.086 214.37 329.449 231.808 315.495 255.616Z" stroke="#FAFAFA"/>
<path opacity="0.1" d="M272.712 307.326C266.832 310.762 261.064 315.431 255.339 320.487C252.628 322.881 249.922 325.365 247.217 327.849L246.759 328.27C243.899 330.896 241.039 333.515 238.166 336.03C226.644 346.111 215.02 354.382 202.607 354.497C189.608 354.617 177.009 348.591 164.746 340.864C159.574 337.605 154.477 334.054 149.444 330.547C148.514 329.9 147.587 329.254 146.662 328.611C140.731 324.494 134.887 320.525 129.137 317.289C123.508 314.12 117.975 311.707 112.637 309.501C111.476 309.021 110.324 308.551 109.184 308.085C105.074 306.408 101.103 304.786 97.2907 302.95C87.5755 298.271 78.9534 292.223 72.0634 280.43C57.3917 255.317 50.8739 227.69 51.7031 200.617C51.7875 197.86 53.2452 194.197 55.5067 190.019C57.7577 185.86 60.7615 181.268 63.8585 176.672C64.6106 175.555 65.3684 174.439 66.122 173.328C68.4657 169.875 70.7684 166.482 72.7316 163.351C75.3186 159.226 77.3569 155.496 78.1167 152.638C78.8924 149.721 79.6213 146.917 80.3235 144.216C84.0741 129.787 87.0598 118.302 92.3201 108.236C98.5454 96.3245 107.97 86.3897 125.707 76.0272C135.305 70.4193 147.843 67.188 160.633 65.1093C170.707 63.472 180.9 62.5549 189.9 61.7451C192.324 61.527 194.661 61.3166 196.887 61.1021C205.661 60.2564 217.165 59.4314 228.579 59.3631C240.002 59.2947 251.296 59.9849 259.668 62.1531C278.217 66.9571 290.899 75.7549 300.223 88.0367C309.559 100.335 315.55 116.155 320.654 135.043C325.743 153.878 325.645 167.85 324.274 180.326C323.807 184.574 323.194 188.64 322.585 192.676C322.298 194.58 322.012 196.477 321.742 198.383C320.904 204.318 320.234 210.313 320.23 216.776C320.214 242.576 320.184 258.224 314.265 270.925C308.36 283.596 296.553 293.398 272.712 307.326Z" stroke="#FAFAFA"/>
<path opacity="0.1" d="M165.983 340.069C159.481 338.042 152.144 336.93 144.55 336.111C140.954 335.723 137.295 335.399 133.636 335.076L133.017 335.022C129.15 334.68 125.287 334.334 121.493 333.907C106.279 332.195 92.3337 329.187 83.8799 320.097C75.0271 310.578 70.9834 297.209 68.4221 282.944C67.3418 276.926 66.5279 270.768 65.7241 264.686C65.5757 263.563 65.4277 262.443 65.2783 261.326C64.3211 254.171 63.3117 247.178 61.8253 240.75C60.37 234.456 58.4216 228.743 56.4525 223.314C56.024 222.132 55.5948 220.965 55.1695 219.808C53.6379 215.643 52.1575 211.617 50.9432 207.563C47.8487 197.234 46.5024 186.788 50.5668 173.748C59.2216 145.982 75.2306 122.541 95.7842 104.901C97.8774 103.104 101.566 101.711 106.176 100.564C110.765 99.4227 116.182 98.5449 121.664 97.7334C122.996 97.5363 124.331 97.3431 125.659 97.151C129.79 96.5535 133.849 95.9664 137.484 95.3058C142.275 94.4352 146.404 93.4255 149.027 92.0601C151.704 90.6661 154.267 89.3138 156.735 88.0113C169.92 81.0534 180.415 75.5147 191.395 72.6134C204.39 69.1799 218.081 69.4419 237.693 75.5547C248.306 78.8627 259.145 85.9435 269.304 93.9881C277.305 100.324 284.855 107.234 291.521 113.335C293.316 114.978 295.047 116.562 296.706 118.061C303.246 123.971 311.612 131.911 319.358 140.294C327.11 148.685 334.215 157.491 338.258 165.136C347.216 182.074 349.269 197.372 346.485 212.538C343.696 227.726 336.051 242.816 325.543 259.32C315.065 275.777 304.68 285.125 294.541 292.523C291.089 295.043 287.672 297.331 284.282 299.603C282.682 300.674 281.088 301.742 279.498 302.828C274.55 306.211 269.671 309.758 264.895 314.112C245.829 331.495 234.253 342.023 220.882 346.214C207.543 350.396 192.344 348.285 165.983 340.069Z" stroke="#FAFAFA"/>
<g opacity="0.3" filter="url(#filter0_f_716_21563)">
<path d="M192.727 152.396C194.583 151.324 196.871 151.324 198.727 152.396L238.193 175.182C240.05 176.254 241.193 178.234 241.193 180.378V225.95C241.193 228.093 240.05 230.074 238.193 231.146L198.727 253.932C196.871 255.004 194.583 255.004 192.727 253.932L153.261 231.146C151.404 230.074 150.261 228.093 150.261 225.95V180.378C150.261 178.234 151.404 176.254 153.261 175.182L192.727 152.396Z" fill="#931A42"/>
</g>
<g opacity="0.4" filter="url(#filter1_f_716_21563)">
<path d="M192.727 157.396C194.584 156.324 196.871 156.324 198.727 157.396L239.059 180.682C240.916 181.754 242.059 183.734 242.059 185.878V232.45C242.059 234.593 240.916 236.574 239.059 237.646L198.727 260.932C196.871 262.004 194.584 262.004 192.727 260.932L152.395 237.646C150.538 236.574 149.395 234.593 149.395 232.45V185.878C149.395 183.734 150.538 181.754 152.395 180.682L192.727 157.396Z" fill="#931A42"/>
</g>
<path d="M192.727 144.396C194.583 143.324 196.871 143.324 198.727 144.396L241.658 169.182C243.514 170.254 244.658 172.234 244.658 174.378V223.95C244.658 226.093 243.514 228.074 241.658 229.146L198.727 253.932C196.871 255.004 194.583 255.004 192.727 253.932L149.797 229.146C147.94 228.074 146.797 226.093 146.797 223.95V174.378C146.797 172.234 147.94 170.254 149.797 169.182L192.727 144.396Z" fill="url(#paint0_linear_716_21563)"/>
<path d="M220.254 212.368L212.086 220.995C211.909 221.183 211.694 221.332 211.455 221.434C211.216 221.537 210.959 221.589 210.699 221.589H171.981C171.796 221.589 171.615 221.536 171.461 221.436C171.306 221.336 171.185 221.194 171.111 221.027C171.038 220.861 171.015 220.676 171.046 220.497C171.078 220.317 171.162 220.151 171.288 220.018L179.461 211.39C179.638 211.203 179.852 211.054 180.09 210.952C180.328 210.85 180.585 210.797 180.845 210.796H219.56C219.745 210.796 219.926 210.85 220.08 210.949C220.235 211.049 220.356 211.191 220.43 211.358C220.503 211.525 220.526 211.709 220.495 211.889C220.463 212.068 220.38 212.235 220.254 212.368ZM212.086 194.994C211.909 194.806 211.694 194.657 211.455 194.555C211.216 194.452 210.959 194.4 210.699 194.4H171.981C171.796 194.4 171.615 194.453 171.461 194.553C171.306 194.653 171.185 194.795 171.111 194.962C171.038 195.129 171.015 195.313 171.046 195.492C171.078 195.672 171.162 195.838 171.288 195.971L179.461 204.599C179.638 204.786 179.852 204.935 180.09 205.037C180.328 205.139 180.585 205.192 180.845 205.193H219.56C219.745 205.193 219.926 205.139 220.08 205.04C220.235 204.94 220.356 204.798 220.43 204.631C220.503 204.464 220.526 204.28 220.495 204.1C220.463 203.921 220.38 203.754 220.254 203.621L212.086 194.994ZM171.981 188.796H210.699C210.959 188.796 211.216 188.744 211.455 188.641C211.694 188.539 211.909 188.39 212.086 188.202L220.254 179.575C220.38 179.442 220.463 179.275 220.495 179.096C220.526 178.916 220.503 178.732 220.43 178.565C220.356 178.398 220.235 178.256 220.08 178.156C219.926 178.057 219.745 178.003 219.56 178.003H180.845C180.585 178.004 180.328 178.057 180.09 178.159C179.852 178.261 179.638 178.41 179.461 178.597L171.29 187.225C171.164 187.358 171.08 187.524 171.049 187.703C171.017 187.882 171.04 188.067 171.113 188.233C171.186 188.4 171.308 188.542 171.462 188.642C171.616 188.742 171.796 188.796 171.981 188.796Z" fill="#FAFAFA"/>
<g opacity="0.3" filter="url(#filter2_f_716_21563)">
<path d="M264.827 41.9183C266.683 40.8466 268.971 40.8466 270.827 41.9183L295.138 55.9542C296.994 57.026 298.138 59.0068 298.138 61.1504V89.2222C298.138 91.3658 296.994 93.3466 295.138 94.4184L270.827 108.454C268.971 109.526 266.683 109.526 264.827 108.454L240.516 94.4184C238.66 93.3466 237.516 91.3658 237.516 89.2222V61.1504C237.516 59.0068 238.66 57.026 240.516 55.9542L264.827 41.9183Z" fill="#6B3D0F"/>
</g>
<g opacity="0.4" filter="url(#filter3_f_716_21563)">
<path d="M264.827 46.9183C266.683 45.8466 268.97 45.8466 270.827 46.9183L296.004 61.4542C297.86 62.526 299.004 64.5068 299.004 66.6504V95.7222C299.004 97.8658 297.86 99.8466 296.004 100.918L270.827 115.454C268.97 116.526 266.683 116.526 264.827 115.454L239.65 100.918C237.793 99.8466 236.65 97.8658 236.65 95.7222V66.6504C236.65 64.5068 237.793 62.526 239.65 61.4542L264.827 46.9183Z" fill="#6B3D0F"/>
</g>
<path d="M264.827 33.9183C266.683 32.8466 268.971 32.8466 270.827 33.9183L298.602 49.9542C300.458 51.026 301.602 53.0068 301.602 55.1504V87.2222C301.602 89.3658 300.458 91.3466 298.602 92.4184L270.827 108.454C268.971 109.526 266.683 109.526 264.827 108.454L237.052 92.4184C235.196 91.3466 234.052 89.3658 234.052 87.2222V55.1504C234.052 53.0068 235.196 51.026 237.052 49.9542L264.827 33.9183Z" fill="url(#paint1_linear_716_21563)"/>
<path d="M280.945 67.7357C281.521 63.8795 278.586 61.8067 274.571 60.4239L275.873 55.2003L272.694 54.408L271.426 59.494C270.59 59.2855 269.731 59.0891 268.878 58.8943L270.155 53.7747L266.978 52.9824L265.674 58.2043C264.983 58.0468 264.303 57.8911 263.644 57.7271L263.648 57.7107L259.263 56.6157L258.417 60.0119C258.417 60.0119 260.776 60.5526 260.726 60.5859C262.014 60.9073 262.247 61.7597 262.208 62.4353L260.725 68.3861C260.813 68.4087 260.928 68.4412 261.055 68.4922C260.949 68.4659 260.836 68.4371 260.719 68.4091L258.64 76.7454C258.482 77.1366 258.083 77.7237 257.183 77.5008C257.215 77.5469 254.872 76.924 254.872 76.924L253.293 80.5638L257.431 81.5953C258.201 81.7884 258.955 81.9904 259.698 82.1803L258.382 87.4638L261.558 88.2561L262.861 83.0287C263.729 83.2643 264.571 83.4815 265.395 83.6863L264.097 88.8891L267.277 89.6814L268.592 84.4078C274.014 85.434 278.091 85.0203 279.807 80.1159C281.19 76.1674 279.739 73.8899 276.886 72.4047C278.964 71.9255 280.527 70.5586 280.945 67.7357ZM273.68 77.9231C272.697 81.8717 266.049 79.7372 263.894 79.202L265.64 72.2023C267.795 72.7403 274.707 73.8052 273.68 77.9231ZM274.663 67.6785C273.767 71.2702 268.233 69.4454 266.438 68.998L268.022 62.6497C269.816 63.0971 275.597 63.9322 274.663 67.6785Z" fill="#FAFAFA"/>
<g opacity="0.3" filter="url(#filter4_f_716_21563)">
<path d="M56.0097 200.241C57.8661 199.169 60.1533 199.169 62.0097 200.241L80.2584 210.777C82.1148 211.848 83.2584 213.829 83.2584 215.973V237.044C83.2584 239.188 82.1148 241.169 80.2584 242.241L62.0097 252.777C60.1533 253.848 57.8661 253.848 56.0097 252.777L37.761 242.241C35.9046 241.169 34.761 239.188 34.761 237.044V215.973C34.761 213.829 35.9046 211.848 37.761 210.777L56.0097 200.241Z" fill="#6B3D0F"/>
</g>
<g opacity="0.4" filter="url(#filter5_f_716_21563)">
<path d="M56.0098 205.241C57.8662 204.169 60.1533 204.169 62.0098 205.241L81.1245 216.277C82.9809 217.348 84.1245 219.329 84.1245 221.473V243.544C84.1245 245.688 82.9809 247.669 81.1245 248.741L62.0098 259.777C60.1533 260.848 57.8662 260.848 56.0098 259.777L36.895 248.741C35.0386 247.669 33.895 245.688 33.895 243.544V221.473C33.895 219.329 35.0386 217.348 36.895 216.277L56.0098 205.241Z" fill="#6B3D0F"/>
</g>
<path d="M56.0097 192.241C57.8661 191.169 60.1533 191.169 62.0097 192.241L83.7225 204.777C85.5789 205.848 86.7225 207.829 86.7225 209.973V235.044C86.7225 237.188 85.5789 239.169 83.7225 240.241L62.0097 252.777C60.1533 253.848 57.8661 253.848 56.0097 252.777L34.2969 240.241C32.4405 239.169 31.2969 237.188 31.2969 235.044V209.973C31.2969 207.829 32.4405 205.848 34.2969 204.777L56.0097 192.241Z" fill="url(#paint2_linear_716_21563)"/>
<path d="M59.1962 214.427L53.3361 220.287L49.9266 216.877L59.1962 207.608L68.4689 216.88L65.0592 220.29L59.1962 214.427Z" fill="#FAFAFA"/>
<path d="M47.5188 219.285L44.1089 222.695L47.5185 226.104L50.9284 222.694L47.5188 219.285Z" fill="#FAFAFA"/>
<path d="M59.1962 230.963L53.3361 225.103L49.9217 228.508L59.1962 237.782L68.4689 228.51L68.4706 228.508L65.0591 225.1L59.1962 230.963Z" fill="#FAFAFA"/>
<path d="M70.874 219.287L67.4641 222.696L70.8739 226.106L74.2836 222.696L70.874 219.287Z" fill="#FAFAFA"/>
<path d="M62.6555 222.692H62.6543L62.6574 222.694L62.6557 222.696L59.1957 226.156L55.7387 222.698L55.7339 222.694L55.7387 222.689L59.1957 219.232L62.6555 222.692Z" fill="#FAFAFA"/>
<g opacity="0.3" filter="url(#filter6_f_716_21563)">
<path d="M234.449 322.027C236.306 320.955 238.593 320.955 240.449 322.027L256.533 331.313C258.389 332.384 259.533 334.365 259.533 336.509V355.081C259.533 357.224 258.389 359.205 256.533 360.277L240.449 369.563C238.593 370.634 236.306 370.634 234.449 369.563L218.366 360.277C216.509 359.205 215.366 357.224 215.366 355.081V336.509C215.366 334.365 216.509 332.384 218.366 331.313L234.449 322.027Z" fill="#451FAD"/>
</g>
<g opacity="0.4" filter="url(#filter7_f_716_21563)">
<path d="M234.449 327.027C236.306 325.955 238.593 325.955 240.449 327.027L257.399 336.813C259.256 337.884 260.399 339.865 260.399 342.009V361.581C260.399 363.724 259.256 365.705 257.399 366.777L240.449 376.563C238.593 377.634 236.306 377.634 234.449 376.563L217.5 366.777C215.643 365.705 214.5 363.724 214.5 361.581V342.009C214.5 339.865 215.643 337.884 217.5 336.813L234.449 327.027Z" fill="#451FAD"/>
</g>
<path d="M234.449 314.027C236.306 312.955 238.593 312.955 240.449 314.027L259.997 325.313C261.854 326.384 262.997 328.365 262.997 330.509V353.081C262.997 355.224 261.854 357.205 259.997 358.277L240.449 369.563C238.593 370.634 236.306 370.634 234.449 369.563L214.902 358.277C213.045 357.205 211.902 355.224 211.902 353.081V330.509C211.902 328.365 213.045 326.384 214.902 325.313L234.449 314.027Z" fill="url(#paint3_linear_716_21563)"/>
<path d="M229.208 342.128L237.718 328.007V328.014L237.72 328.007L246.229 342.126L246.234 342.128L237.723 347.158V347.157L237.72 347.159L237.718 347.157V347.158L229.208 342.128Z" fill="#FAFAFA"/>
<path d="M237.718 355.73V355.735L229.208 343.743L237.718 348.771V348.773L237.72 348.771L246.236 343.743L237.72 355.735L237.718 355.73Z" fill="#FAFAFA"/>
<g opacity="0.3" filter="url(#filter8_f_716_21563)">
<path d="M131.191 58.4467C133.048 57.3749 135.335 57.3749 137.191 58.4467L155.007 68.7326C156.863 69.8044 158.007 71.7851 158.007 73.9287V94.5005C158.007 96.6441 156.863 98.6249 155.007 99.6967L137.191 109.983C135.335 111.054 133.048 111.054 131.191 109.983L113.375 99.6967C111.519 98.6249 110.375 96.6441 110.375 94.5005V73.9287C110.375 71.7851 111.519 69.8044 113.375 68.7326L131.191 58.4467Z" fill="#194327"/>
</g>
<g opacity="0.4" filter="url(#filter9_f_716_21563)">
<path d="M131.191 63.4467C133.048 62.3749 135.335 62.3749 137.191 63.4467L155.873 74.2326C157.729 75.3044 158.873 77.2851 158.873 79.4287V101.001C158.873 103.144 157.729 105.125 155.873 106.197L137.191 116.983C135.335 118.054 133.048 118.054 131.191 116.983L112.51 106.197C110.653 105.125 109.51 103.144 109.51 101.001V79.4287C109.51 77.2851 110.653 75.3044 112.51 74.2326L131.191 63.4467Z" fill="#194327"/>
</g>
<path d="M131.191 50.4467C133.048 49.3749 135.335 49.3749 137.191 50.4467L158.471 62.7326C160.327 63.8044 161.471 65.7851 161.471 67.9287V92.5005C161.471 94.6441 160.327 96.6249 158.471 97.6967L137.191 109.983C135.335 111.054 133.048 111.054 131.191 109.983L109.911 97.6967C108.055 96.6249 106.911 94.6441 106.911 92.5005V67.9287C106.911 65.7851 108.055 63.8044 109.911 62.7326L131.191 50.4467Z" fill="url(#paint4_linear_716_21563)"/>
<path d="M148.63 68.2874H144.387L137.673 74.9293C136.695 75.8927 135.378 76.4328 134.005 76.4328C132.633 76.4328 131.315 75.8927 130.338 74.9293L123.629 68.2874H119.382L128.216 77.0309C131.417 80.1956 136.601 80.1956 139.799 77.0309L148.63 68.2874Z" fill="#FAFAFA"/>
<path d="M119.328 92.6004H123.574L130.343 85.9045C131.32 84.9411 132.638 84.401 134.01 84.401C135.383 84.401 136.7 84.9411 137.678 85.9045L144.444 92.6004H148.687L139.799 83.8029C136.599 80.6382 131.414 80.6382 128.216 83.8029L119.328 92.6004Z" fill="#FAFAFA"/>
<g opacity="0.3" filter="url(#filter10_f_716_21563)">
<path d="M330.45 219.121C332.201 218.198 334.295 218.198 336.046 219.121L349.965 226.458C351.934 227.497 353.167 229.54 353.167 231.766V245.527C353.167 247.753 351.934 249.796 349.965 250.834L336.046 258.171C334.295 259.095 332.201 259.095 330.45 258.171L316.532 250.834C314.562 249.796 313.33 247.753 313.33 245.527V231.766C313.33 229.54 314.562 227.497 316.532 226.458L330.45 219.121Z" fill="#931A42"/>
</g>
<g opacity="0.4" filter="url(#filter11_f_716_21563)">
<path d="M330.442 224.132C332.197 223.203 334.299 223.203 336.055 224.132L350.839 231.956C352.804 232.996 354.033 235.037 354.033 237.259V252.033C354.033 254.256 352.804 256.297 350.839 257.336L336.055 265.161C334.299 266.09 332.197 266.09 330.442 265.161L315.657 257.336C313.692 256.297 312.464 254.256 312.464 252.033V237.259C312.464 235.037 313.692 232.996 315.657 231.956L330.442 224.132Z" fill="#931A42"/>
</g>
<path d="M330.42 211.158C332.187 210.213 334.31 210.213 336.077 211.158L353.46 220.451C355.412 221.495 356.631 223.528 356.631 225.742V243.55C356.631 245.764 355.412 247.798 353.46 248.842L336.077 258.134C334.31 259.079 332.187 259.079 330.42 258.134L313.037 248.842C311.085 247.798 309.866 245.764 309.866 243.55V225.742C309.866 223.528 311.085 221.495 313.037 220.451L330.42 211.158Z" fill="url(#paint5_linear_716_21563)"/>
<path d="M323.372 244.216H327.339C328.273 244.216 328.74 244.216 329.157 244.108C329.614 243.981 330.031 243.756 330.378 243.446C330.696 243.162 330.926 242.786 331.379 242.044L331.392 242.022L336.538 233.513C336.995 232.766 337.221 232.39 337.321 231.995C337.432 231.568 337.432 231.116 337.321 230.689C337.222 230.297 336.993 229.924 336.543 229.188L334.519 225.883C334.102 225.197 333.891 224.854 333.625 224.727C333.339 224.591 332.997 224.591 332.711 224.727C332.445 224.854 332.234 225.197 331.817 225.883L322.021 242.036C321.609 242.713 321.403 243.051 321.418 243.328C321.438 243.629 321.604 243.901 321.875 244.066C322.126 244.216 322.538 244.216 323.372 244.216Z" fill="#FAFAFA"/>
<path d="M343.044 244.216H337.359C336.52 244.216 336.098 244.216 335.852 244.066C335.581 243.901 335.415 243.624 335.395 243.324C335.38 243.049 335.587 242.713 336.003 242.043L336.013 242.027L338.85 237.47C339.267 236.798 339.478 236.464 339.739 236.337C340.025 236.201 340.362 236.201 340.648 236.337C340.907 236.461 341.109 236.78 341.509 237.413L341.542 237.465L344.39 242.022C344.404 242.045 344.417 242.067 344.431 242.088C344.826 242.726 345.027 243.051 345.013 243.319C344.997 243.619 344.827 243.897 344.556 244.061C344.304 244.216 343.882 244.216 343.044 244.216Z" fill="#FAFAFA"/>
<g opacity="0.3" filter="url(#filter12_f_716_21563)">
<path d="M115.66 315.834C117.476 314.822 119.687 314.822 121.503 315.834L128.06 319.489C129.961 320.549 131.139 322.554 131.139 324.73V331.681C131.139 333.857 129.961 335.862 128.06 336.922L121.503 340.577C119.687 341.589 117.476 341.589 115.66 340.577L109.103 336.922C107.202 335.862 106.024 333.857 106.024 331.681V324.73C106.024 322.554 107.202 320.549 109.103 319.489L115.66 315.834Z" fill="#521B6F"/>
</g>
<g opacity="0.4" filter="url(#filter13_f_716_21563)">
<path d="M115.655 320.841C117.474 319.825 119.689 319.825 121.508 320.841L128.932 324.988C130.829 326.049 132.005 328.052 132.005 330.226V338.185C132.005 340.359 130.829 342.363 128.932 343.423L121.508 347.57C119.689 348.587 117.474 348.587 115.655 347.57L108.232 343.423C106.334 342.363 105.158 340.359 105.158 338.185V330.226C105.158 328.052 106.334 326.049 108.232 324.988L115.655 320.841Z" fill="#521B6F"/>
</g>
<path d="M115.643 307.856C117.468 306.831 119.695 306.831 121.52 307.856L131.542 313.486C133.433 314.548 134.603 316.548 134.603 318.717V329.694C134.603 331.863 133.433 333.863 131.542 334.925L121.52 340.555C119.695 341.58 117.468 341.58 115.643 340.555L105.621 334.925C103.731 333.863 102.56 331.863 102.56 329.694V318.717C102.56 316.548 103.731 314.548 105.621 313.486L115.643 307.856Z" fill="url(#paint6_linear_716_21563)"/>
<g clip-path="url(#clip0_716_21563)">
<path d="M122.754 321.29C122.441 321.115 122.039 321.115 121.681 321.29L119.177 322.731L117.478 323.647L115.018 325.088C114.705 325.262 114.303 325.262 113.945 325.088L112.022 323.953C111.709 323.778 111.486 323.429 111.486 323.036V320.854C111.486 320.504 111.664 320.155 112.022 319.937L113.945 318.846C114.258 318.671 114.66 318.671 115.018 318.846L116.941 319.98C117.254 320.155 117.478 320.504 117.478 320.897V322.338L119.177 321.377V319.893C119.177 319.544 118.998 319.195 118.64 318.977L115.063 316.925C114.75 316.75 114.347 316.75 113.99 316.925L110.323 319.02C109.965 319.195 109.786 319.544 109.786 319.893V323.996C109.786 324.346 109.965 324.695 110.323 324.913L113.945 326.965C114.258 327.139 114.66 327.139 115.018 326.965L117.478 325.568L119.177 324.608L121.636 323.211C121.949 323.036 122.352 323.036 122.709 323.211L124.632 324.302C124.945 324.477 125.169 324.826 125.169 325.219V327.401C125.169 327.75 124.99 328.1 124.632 328.318L122.754 329.409C122.441 329.584 122.039 329.584 121.681 329.409L119.758 328.318C119.445 328.143 119.221 327.794 119.221 327.401V326.004L117.522 326.965V328.405C117.522 328.754 117.701 329.104 118.059 329.322L121.681 331.373C121.994 331.548 122.396 331.548 122.754 331.373L126.376 329.322C126.689 329.147 126.913 328.798 126.913 328.405V324.258C126.913 323.909 126.734 323.56 126.376 323.342L122.754 321.29Z" fill="#FAFAFA"/>
</g>
<defs>
<filter id="filter0_f_716_21563" x="144.261" y="145.592" width="102.933" height="115.144" filterUnits="userSpaceOnUse" color-interpolation-filters="sRGB">
<feFlood flood-opacity="0" result="BackgroundImageFix"/>
<feBlend mode="normal" in="SourceGraphic" in2="BackgroundImageFix" result="shape"/>
<feGaussianBlur stdDeviation="3" result="effect1_foregroundBlur_716_21563"/>
</filter>
<filter id="filter1_f_716_21563" x="134.395" y="141.592" width="122.665" height="135.144" filterUnits="userSpaceOnUse" color-interpolation-filters="sRGB">
<feFlood flood-opacity="0" result="BackgroundImageFix"/>
<feBlend mode="normal" in="SourceGraphic" in2="BackgroundImageFix" result="shape"/>
<feGaussianBlur stdDeviation="7.5" result="effect1_foregroundBlur_716_21563"/>
</filter>
<filter id="filter2_f_716_21563" x="231.516" y="35.1145" width="72.6218" height="80.1436" filterUnits="userSpaceOnUse" color-interpolation-filters="sRGB">
<feFlood flood-opacity="0" result="BackgroundImageFix"/>
<feBlend mode="normal" in="SourceGraphic" in2="BackgroundImageFix" result="shape"/>
<feGaussianBlur stdDeviation="3" result="effect1_foregroundBlur_716_21563"/>
</filter>
<filter id="filter3_f_716_21563" x="221.65" y="31.1145" width="92.3538" height="100.144" filterUnits="userSpaceOnUse" color-interpolation-filters="sRGB">
<feFlood flood-opacity="0" result="BackgroundImageFix"/>
<feBlend mode="normal" in="SourceGraphic" in2="BackgroundImageFix" result="shape"/>
<feGaussianBlur stdDeviation="7.5" result="effect1_foregroundBlur_716_21563"/>
</filter>
<filter id="filter4_f_716_21563" x="28.761" y="193.437" width="60.4973" height="66.1436" filterUnits="userSpaceOnUse" color-interpolation-filters="sRGB">
<feFlood flood-opacity="0" result="BackgroundImageFix"/>
<feBlend mode="normal" in="SourceGraphic" in2="BackgroundImageFix" result="shape"/>
<feGaussianBlur stdDeviation="3" result="effect1_foregroundBlur_716_21563"/>
</filter>
<filter id="filter5_f_716_21563" x="18.895" y="189.437" width="80.2295" height="86.1436" filterUnits="userSpaceOnUse" color-interpolation-filters="sRGB">
<feFlood flood-opacity="0" result="BackgroundImageFix"/>
<feBlend mode="normal" in="SourceGraphic" in2="BackgroundImageFix" result="shape"/>
<feGaussianBlur stdDeviation="7.5" result="effect1_foregroundBlur_716_21563"/>
</filter>
<filter id="filter6_f_716_21563" x="209.366" y="315.223" width="56.1672" height="61.1436" filterUnits="userSpaceOnUse" color-interpolation-filters="sRGB">
<feFlood flood-opacity="0" result="BackgroundImageFix"/>
<feBlend mode="normal" in="SourceGraphic" in2="BackgroundImageFix" result="shape"/>
<feGaussianBlur stdDeviation="3" result="effect1_foregroundBlur_716_21563"/>
</filter>
<filter id="filter7_f_716_21563" x="199.5" y="311.223" width="75.8994" height="81.1436" filterUnits="userSpaceOnUse" color-interpolation-filters="sRGB">
<feFlood flood-opacity="0" result="BackgroundImageFix"/>
<feBlend mode="normal" in="SourceGraphic" in2="BackgroundImageFix" result="shape"/>
<feGaussianBlur stdDeviation="7.5" result="effect1_foregroundBlur_716_21563"/>
</filter>
<filter id="filter8_f_716_21563" x="104.375" y="51.6428" width="59.6313" height="65.1436" filterUnits="userSpaceOnUse" color-interpolation-filters="sRGB">
<feFlood flood-opacity="0" result="BackgroundImageFix"/>
<feBlend mode="normal" in="SourceGraphic" in2="BackgroundImageFix" result="shape"/>
<feGaussianBlur stdDeviation="3" result="effect1_foregroundBlur_716_21563"/>
</filter>
<filter id="filter9_f_716_21563" x="94.5095" y="47.6428" width="79.3635" height="85.1436" filterUnits="userSpaceOnUse" color-interpolation-filters="sRGB">
<feFlood flood-opacity="0" result="BackgroundImageFix"/>
<feBlend mode="normal" in="SourceGraphic" in2="BackgroundImageFix" result="shape"/>
<feGaussianBlur stdDeviation="7.5" result="effect1_foregroundBlur_716_21563"/>
</filter>
<filter id="filter10_f_716_21563" x="307.33" y="212.429" width="51.8372" height="52.4348" filterUnits="userSpaceOnUse" color-interpolation-filters="sRGB">
<feFlood flood-opacity="0" result="BackgroundImageFix"/>
<feBlend mode="normal" in="SourceGraphic" in2="BackgroundImageFix" result="shape"/>
<feGaussianBlur stdDeviation="3" result="effect1_foregroundBlur_716_21563"/>
</filter>
<filter id="filter11_f_716_21563" x="297.464" y="208.435" width="71.5691" height="72.4231" filterUnits="userSpaceOnUse" color-interpolation-filters="sRGB">
<feFlood flood-opacity="0" result="BackgroundImageFix"/>
<feBlend mode="normal" in="SourceGraphic" in2="BackgroundImageFix" result="shape"/>
<feGaussianBlur stdDeviation="7.5" result="effect1_foregroundBlur_716_21563"/>
</filter>
<filter id="filter12_f_716_21563" x="100.024" y="309.075" width="37.1147" height="38.2615" filterUnits="userSpaceOnUse" color-interpolation-filters="sRGB">
<feFlood flood-opacity="0" result="BackgroundImageFix"/>
<feBlend mode="normal" in="SourceGraphic" in2="BackgroundImageFix" result="shape"/>
<feGaussianBlur stdDeviation="3" result="effect1_foregroundBlur_716_21563"/>
</filter>
<filter id="filter13_f_716_21563" x="90.1582" y="305.079" width="56.8467" height="58.2539" filterUnits="userSpaceOnUse" color-interpolation-filters="sRGB">
<feFlood flood-opacity="0" result="BackgroundImageFix"/>
<feBlend mode="normal" in="SourceGraphic" in2="BackgroundImageFix" result="shape"/>
<feGaussianBlur stdDeviation="7.5" result="effect1_foregroundBlur_716_21563"/>
</filter>
<linearGradient id="paint0_linear_716_21563" x1="195.727" y1="143.592" x2="195.727" y2="254.736" gradientUnits="userSpaceOnUse">
<stop stop-color="#E3638E"/>
<stop offset="1" stop-color="#DC386E"/>
</linearGradient>
<linearGradient id="paint1_linear_716_21563" x1="267.827" y1="33.1145" x2="267.827" y2="109.258" gradientUnits="userSpaceOnUse">
<stop stop-color="#F4BA45"/>
<stop offset="1" stop-color="#F19C3B"/>
</linearGradient>
<linearGradient id="paint2_linear_716_21563" x1="59.0097" y1="191.437" x2="59.0097" y2="253.58" gradientUnits="userSpaceOnUse">
<stop stop-color="#F4BA45"/>
<stop offset="1" stop-color="#F19C3B"/>
</linearGradient>
<linearGradient id="paint3_linear_716_21563" x1="237.449" y1="313.223" x2="237.449" y2="370.366" gradientUnits="userSpaceOnUse">
<stop stop-color="#9A7DE8"/>
<stop offset="1" stop-color="#7852E0"/>
</linearGradient>
<linearGradient id="paint4_linear_716_21563" x1="134.191" y1="49.6428" x2="134.191" y2="110.786" gradientUnits="userSpaceOnUse">
<stop stop-color="#3FA862"/>
<stop offset="1" stop-color="#348D52"/>
</linearGradient>
<linearGradient id="paint5_linear_716_21563" x1="333.248" y1="210.45" x2="333.248" y2="258.843" gradientUnits="userSpaceOnUse">
<stop stop-color="#E3638E"/>
<stop offset="1" stop-color="#DC386E"/>
</linearGradient>
<linearGradient id="paint6_linear_716_21563" x1="118.582" y1="307.087" x2="118.582" y2="341.324" gradientUnits="userSpaceOnUse">
<stop stop-color="#A64ED4"/>
<stop offset="1" stop-color="#8E2FC1"/>
</linearGradient>
<clipPath id="clip0_716_21563">
<rect width="18.2679" height="17.833" fill="white" transform="translate(109.216 315.122)"/>
</clipPath>
</defs>
</svg>
