<svg width="84" height="84" viewBox="0 0 84 84" fill="none" xmlns="http://www.w3.org/2000/svg">
<path d="M42 0C18.9 0 0 18.9 0 42C0 65.1 18.9 84 42 84C65.1 84 84 65.1 84 42C84 18.9 65.1 0 42 0ZM33.6 63L12.6 42L18.522 36.078L33.6 51.114L65.478 19.236L71.4 25.2L33.6 63Z" fill="white"/>
</svg>
